    def scale{MIXIN}(self, {mixin}):
        """
        (float) -> None

        Scale the {mixin} dimension by the given factor.
        """
        self.d{dim}ptr().scale{MIXIN}({mixin})

    def {mixin}Mean(self):
        """Weighted mean of {mixin}"""
        return self.d{dim}ptr().{mixin}Mean()

    def {mixin}Variance(self):
        """Weighted variance of {mixin}"""
        return self.d{dim}ptr().{mixin}Variance()

    def {mixin}StdDev(self):
        """Weighted standard deviation of {mixin}"""
        return self.d{dim}ptr().{mixin}StdDev()

    def {mixin}StdErr(self):
        """Weighted standard error on <{mixin}>"""
        return self.d{dim}ptr().{mixin}StdErr()

    def {mixin}RMS(self):
        """Weighted root mean squared (RMS) of {mixin}"""
        return self.d{dim}ptr().{mixin}RMS()

    def sumW{MIXIN}(self):
        """sum(weights * xs)"""
        return self.d{dim}ptr().sumW{MIXIN}()

    def sumW{MIXIN}2(self):
        """sum(weights * {mixin}s * {mixin}s)"""
        return self.d{dim}ptr().sumW{MIXIN}2()

{crossTerms}
